par,init,lower,upper
g_0,1.4,0.1,10
E_K,90,10,130
E_r,90,10,130
E_V,90,10,130
f_ug,0.6,0.3,0.8
f_ge,0.025,0.01,0.1
K_D_ref,60,30,300
K_U_ref,1,0.01,10
r_ed_ref,0.0002,0.00001,0.001
r_md_ref,0.002,0.001,0.01
r_mr_ref,0.00004,0.000001,0.001
V_D_ref,0.3,0.1,1
V_U_ref,0.09,0.01,0.1
n,2.7,1,3
m,1.2,1,3
f_CD,0.000088,0.00001,0.001
f_CE,0.00058,0.00001,0.001
f_CM,0.043,0.001,0.1
